[{
    "id": 0,
    "name": "Isha Life",
    "cusine": "South Indian",
    "img": "img/restaurant-1.jpg",
	"address":"Old No. 50, New No. 117, Luz Church Road, Near Nageshwara Rao Park, Mylapore, Bhaskarapuram, Mylapore, Chennai, Tamil Nadu 600004",	
	"rating": 4.5,
	"menus":[{
	"menu_name":"Tomato Soup",
		"menu_img":"img/Tomato-soup.jpg",
		"price":"170",
		"offer_price":"140"
		   },{
	"menu_name":"Drumstick Soup",
		"menu_img":"img/Drumstick-soup.jpg",
		"price":"175",
		"offer_price":"145"
		   }]
  }, {
    "id": 1,
    "name": "New Classic Restaurant",
    "cusine": "South Indian",
    "img": "img/restaurant-2.jpg",
	  "address":"95/54, Near Vivekananda College, Siva Swamy Road, Luz, Mylapore, Chennai, Tamil Nadu 600004",
	"rating": 3.8,
	  	"menus":[{
	"menu_name":"Chicken Biryani",
		"menu_img":"img/chicken-biryani.jpg",
		"price":"170",
		"offer_price":"140"
		   },{
	"menu_name":"Mutton Biryani",
		"menu_img":"img/mutton-biryani.jpg",
		"price":"175",
		"offer_price":"145"
		   }]
  }, {
    "id": 2,
    "name": "Grill Box R K Salai",
    "cusine": "South Indian",
    "img": "img/restaurant-3.jpg",
	"address":"25, Dr Radha Krishnan Salai, Near Yellow Pages Junction, Mylapore, Chennai, Tamil Nadu 600004",
	"rating": 4.2,
	
	  	"menus":[{
	"menu_name":"Achari Mushroom",
		"menu_img":"img/achari-mushroom.jpg",
		"price":"170",
		"offer_price":"140"
		   },{
	"menu_name":"Angara Chicken",
		"menu_img":"img/angara-chicken.jpg",
		"price":"175",
		"offer_price":"145"
		   }]
  }, {
    "id": 3,
    "name": "Sangeetha Veg Restaurant",
    "cusine": "South Indian",
    "img": "img/restaurant-4.jpg",
	    "address":"24, South Mada Street, Mylapore, Alamelu Manga Puram, Sankarapuram, Mylapore, Chennai, Tamil Nadu 600004",
	"rating": 4.0,
	  	"menus":[{
	"menu_name":"Veg Sandwich",
		"menu_img":"img/veg-sandwich.jpg",
		"price":"170",
		"offer_price":"140"
		   },{
	"menu_name":"Mushroom Fried Rice",
		"menu_img":"img/mushroom-fried-rice.jpg",
		"price":"175",
		"offer_price":"145"
		   }]
 
  }, {
    "id": 4,
    "name": "Mylai Biriyani",
    "cusine": "South Indian",
    "img": "img/restaurant-5.jpg",
	  "address":"167, Kutchery Rd, Madhavaperumalpuram, Mylapore, Chennai, Tamil Nadu 600004",
	"rating": 4.2,
	  	"menus":[{
	"menu_name":"Chicken Biryani",
		"menu_img":"img/chicken-biryani.jpg",
		"price":"170",
		"offer_price":"140"
		   },{
	"menu_name":"kushka",
		"menu_img":"img/kushka.jpg",
		"price":"175",
		"offer_price":"145"
		   }]
  }]